{
	"@id": "vocab:IssueCollection",
	"@type": "hydra:Class",
	"subClassOf": "hydra:Collection",
	"label": "IssueCollection",
	"description": "IssueCollection",
	"supportedOperation": [
		{
			"@id": "_:issue_collection_retrieve",
			"@type": "hydra:Operation",
			"method": "GET",
			"label": "Retrieves a collection of issues",
			"description": null,
			"expects": null,
			"returns": "vocab:IssueCollection",
			"statusCodes": []
		}
	],
	"supportedProperty": [
		{
			"property": "hydra:member",
			"hydra:title": "members",
			"hydra:description": "Issues",
			"required": true,
			"readonly": false,
			"writeonly": false
		}
	]
}
